anchor	target
3616	3613
355	352
2214	2181
765	744
510	454
3978	3950
2120	2095
3157	3130
1365	1356
2463	2422
518	459
1174	1162
1922	1910
1003	994
2714	2672
1723	1703
598	533
67	12
2128	2078
3493	3465
3370	3355
1794	1769
1781	1733
1430	1418
1314	1249
3920	3867
2390	2387
1336	1315
91	27
1025	1008
2287	2263
2631	2599
1427	1377
1744	1719
1601	1566
2941	2881
3657	3653
3497	3449
773	740
2487	2476
1220	1174
803	736
1161	1136
3385	3337
3448	3390
2496	2461
3800	3778
2040	1991
2244	2241
378	354
3514	3472
3625	3585
3735	3696
1810	1748
1412	1355
1962	1907
2055	1995
1284	1270
695	638
1441	1392
3097	3084
3924	3911
2502	2444
2895	2840
2921	2878
3491	3485
2015	1999
2026	1989
201	136
3047	2991
3948	3908
2727	2661
583	557
318	300
2513	2485
54	28
2707	2647
2981	2919
2030	1997
841	819
3360	3306
3225	3214
2189	2174
614	597
3173	3125
1302	1286
3823	3803
3903	3856
1885	1860
1144	1100
1974	1948
2372	2325
3974	3944
2808	2807
579	571
806	759
699	693
597	547
2877	2822
3478	3446
1558	1554
2603	2582
493	478
3802	3753
1682	1651
2944	2943
3204	3169
3548	3496
204	175
2309	2250
3787	3739
304	278
1841	1786
234	172
1687	1673
696	675
2937	2899
3570	3507
2382	2375
2116	2076
3183	3182
1619	1609
482	478
712	659
485	476
1339	1276
1896	1876
1810	1756
2486	2439
746	712
1555	1506
937	879
549	511
3427	3404
1096	1084
1182	1148
1762	1759
2460	2440
3552	3491
3537	3533
922	877
1581	1564
1011	956
1076	1046
3557	3544
1905	1871
3354	3350
1015	958
1975	1961
2670	2625
684	658
263	205
1973	1912
181	141
1528	1514
2494	2483
1013	962
3885	3824
2234	2220
3244	3243
817	785
3533	3481
410	346
2683	2671
1011	988
1244	1212
699	685
2098	2082
1028	976
1707	1657
3458	3449
2106	2095
1953	1912
2635	2583
2064	2032
1863	1815
908	903
3691	3679
1193	1168
3451	3438
443	434
325	277
3527	3475
2719	2656
3638	3573
2981	2947
2270	2230
243	201
626	621
3707	3685
2945	2917
460	393
1586	1585
1316	1274
2932	2918
3776	3768
2122	2076
3390	3375
3570	3521
250	222
3945	3908
3870	3866
1843	1777
1572	1549
215	180
3398	3394
2996	2945
3915	3850
3536	3526
1621	1586
3863	3812
2156	2095
410	370
539	514
3531	3499
3195	3170
3551	3529
3833	3781
561	524
2885	2882
293	265
2327	2322
3105	3078
2196	2130
3474	3430
1464	1430
2110	2085
2475	2452
3227	3174
1848	1801
1432	1390
1900	1860
2451	2411
1444	1389
3684	3663
1382	1374
3858	3817
3132	3068
1012	1004
2964	2931
2448	2408
813	789
3457	3399
867	853
3269	3251
2904	2859
3642	3608
1705	1647
1122	1069
2996	2962
3233	3190
31	9
2264	2197
3824	3775
2003	1960
2861	2847
148	113
107	56
1152	1099
338	300
1738	1731
3034	2983
3687	3620
2851	2809
3488	3473
2026	1979
3946	3903
1731	1727
3384	3379
62	1
1800	1775
1231	1165
849	846
1868	1858
3714	3687
3486	3429
1665	1599
1077	1017
3793	3728
2310	2298
3498	3447
1926	1920
593	587
1299	1257
3684	3641
1160	1096
3896	3836
3377	3337
2682	2626
1904	1901
3320	3302
3054	3021
2838	2794
3990	3927
1432	1398
1719	1664
3377	3351
1314	1248
1990	1976
816	788
2820	2769
3367	3327
2501	2492
3314	3252
149	86
3543	3506
3092	3082
1991	1980
512	469
3534	3478
2332	2273
2783	2731
2768	2738
1456	1443
3342	3334
3728	3701
2696	2637
3306	3270
3039	3021
2126	2071
819	765
2124	2058
643	591
1187	1182
3121	3078
3245	3205
1163	1114
251	212
3835	3805
3641	3607
3703	3637
2316	2262
3242	3211
2708	2671
946	910
3291	3280
2532	2521
556	505
516	504
2592	2566
1945	1922
3180	3122
3025	3020
3814	3782
3007	2964
2042	2016
2174	2151
211	145
3183	3154
1055	1025
2616	2571
1564	1519
3099	3064
3604	3580
3084	3063
3511	3498
82	58
1319	1290
2705	2669
3373	3325
3579	3522
248	210
57	54
2254	2196
3594	3557
3800	3797
2676	2655
3187	3120
1818	1809
2398	2365
3802	3776
3257	3201
3981	3955
796	784
2464	2435
368	358
2916	2858
2747	2731
1031	976
1124	1111
1896	1843
3076	3075
1585	1552
329	313
3393	3342
710	683
201	140
74	70
3418	3370
1563	1548
110	83
223	172
179	175
2977	2952
3012	2997
3214	3150
926	894
3253	3220
2754	2749
2846	2805
2878	2816
3215	3193
3296	3269
3074	3020
3023	3008
2555	2554
3476	3447
286	248
2146	2097
73	66
3070	3031
2535	2504
876	847
3610	3568
3572	3516
2373	2337
671	643
2535	2472
2693	2659
2519	2502
2734	2687
2946	2895
2340	2289
1484	1479
2549	2518
3775	3758
1665	1622
2853	2844
2079	2022
2287	2227
2708	2664
3464	3455
2603	2591
2510	2451
225	193
1958	1933
2639	2621
528	480
1587	1586
3292	3250
240	209
179	151
1936	1869
2453	2398
3168	3150
1022	990
3076	3052
3252	3225
2680	2658
704	700
3144	3115
1775	1773
3361	3318
2725	2701
1478	1464
3450	3448
1901	1835
1236	1196
1758	1748
509	468
1582	1569
3635	3594
3807	3744
2508	2500
298	292
468	423
3752	3733
37	1
1861	1811
713	667
1294	1228
295	231
1413	1394
888	868
809	765
593	575
1712	1660
2676	2661
2030	2001
3282	3223
3514	3508
1606	1604
2704	2685
3656	3651
2071	2008
242	220
2344	2295
3383	3381
2244	2223
2327	2284
1112	1064
267	205
1458	1427
508	504
528	526
1984	1977
1676	1662
774	728
187	150
2705	2703
2166	2158
2450	2426
388	377
2190	2146
975	968
2811	2802
2718	2698
2425	2411
787	785
3159	3129
1597	1547
3117	3095
2881	2862
1836	1825
1986	1923
1212	1175
1628	1619
458	419
1922	1896
933	872
2712	2655
2236	2179
3440	3430
959	931
2564	2505
3180	3160
2792	2787
2190	2137
1119	1071
1260	1216
3496	3433
664	659
1722	1661
993	979
2480	2447
461	460
1890	1851
3406	3387
1914	1885
3817	3807
3821	3808
3484	3424
1463	1405
3239	3230
2940	2919
2441	2436
2973	2941
2367	2314
3855	3807
1495	1443
2424	2398
2884	2863
360	311
3738	3732
169	136
1489	1476
2256	2247
2290	2286
2647	2593
3991	3955
1827	1788
686	620
532	527
917	889
984	937
1698	1671
2658	2653
1951	1885
122	89
1415	1414
3236	3221
1518	1491
1126	1091
2604	2571
3449	3428
2661	2605
1077	1066
1023	966
1640	1615
2663	2644
3231	3182
1393	1377
3486	3427
432	414
3768	3713
793	788
745	691
2770	2752
3306	3267
2046	2004
3580	3542
428	377
1947	1938
1885	1827
336	314
2412	2389
527	515
121	66
2909	2898
124	82
3310	3275
296	266
2422	2392
3544	3509
3057	3056
442	405
2710	2690
1691	1682
172	141
3210	3144
3145	3102
332	280
2805	2759
2879	2860
928	925
1534	1480
1163	1151
3098	3088
93	67
1809	1750
3738	3697
468	447
1105	1043
2717	2667
737	682
3399	3369
989	927
1745	1708
161	102
1817	1794
997	976
3466	3421
1299	1297
1951	1917
1246	1207
3987	3946
2306	2240
360	322
1496	1485
2311	2247
3312	3285
3772	3755
1420	1377
467	411
3128	3102
2547	2544
1626	1600
227	226
95	88
500	499
1923	1890
2653	2593
948	904
3659	3623
2207	2164
3791	3774
2031	2026
368	328
2756	2738
737	691
3968	3916
846	836
2488	2485
799	766
1655	1616
1935	1913
2520	2459
2134	2103
3428	3404
3982	3963
432	431
2703	2683
1450	1432
1851	1800
2458	2447
1301	1242
2534	2504
3859	3829
428	423
2720	2704
375	318
2998	2963
3743	3708
1919	1867
1840	1794
3615	3550
2966	2964
2784	2720
3220	3155
1395	1366
3675	3659
2639	2620
1231	1219
3407	3352
70	38
1779	1733
3147	3136
1362	1322
1091	1043
2472	2416
2643	2614
1506	1484
1143	1140
2101	2088
3101	3099
588	541
1134	1091
563	536
1161	1095
3557	3495
73	24
3588	3574
2853	2810
96	50
1793	1728
2041	2026
219	183
3479	3454
1330	1297
3079	3073
998	962
3900	3847
2957	2927
1295	1268
3821	3812
2949	2935
3688	3648
3633	3600
616	575
1276	1223
3798	3774
3150	3146
3114	3069
510	450
2935	2900
3332	3292
96	83
2316	2281
1178	1127
395	383
3099	3037
417	385
2957	2915
3549	3515
3394	3393
2441	2396
2244	2239
1947	1900
108	57
3502	3497
1507	1477
2903	2896
1730	1720
2855	2806
2814	2772
483	443
1598	1566
529	473
1720	1697
3603	3585
2458	2399
304	275
2168	2152
3415	3354
2854	2848
1399	1334
856	791
2263	2205
3702	3699
2145	2135
2747	2707
495	457
2854	2804
1782	1739
3481	3459
613	568
1989	1966
2728	2682
2626	2604
2966	2916
3725	3704
3195	3167
2346	2326
1407	1362
2896	2887
1414	1413
3544	3521
1973	1964
1968	1903
2745	2679
2109	2071
3835	3828
70	33
2477	2473
1422	1405
3812	3767
608	589
387	336
820	794
2308	2273
3120	3059
3342	3278
3087	3076
3065	3033
1181	1128
1859	1851
647	634
63	14
1442	1418
2781	2747
3932	3887
3415	3349
2041	2020
160	154
2431	2412
3086	3070
3593	3571
933	932
673	653
151	136
2930	2903
1845	1784
382	341
151	134
656	631
3704	3691
447	399
2197	2179
391	363
3442	3383
1411	1359
1716	1696
1095	1065
3554	3521
3832	3802
1488	1471
696	664
2135	2132
2838	2822
1832	1770
1665	1606
1561	1548
1182	1172
1112	1061
654	587
1908	1852
1681	1641
2125	2111
2706	2646
2964	2917
2209	2142
1063	1013
3551	3503
3181	3138
3373	3359
3953	3927
1976	1975
670	667
1449	1399
1846	1809
2827	2768
3503	3474
470	432
3984	3976
936	885
1725	1716
2095	2063
1969	1905
3407	3370
2887	2885
617	600
3667	3661
55	32
254	222
2834	2772
3575	3553
1698	1663
198	178
3355	3317
1971	1918
3850	3848
2876	2812
2929	2905
3048	3043
3558	3554
3372	3344
12	11
3676	3660
2914	2883
1616	1591
3394	3385
2476	2418
556	496
206	201
413	373
1391	1334
592	571
2311	2275
206	155
2843	2813
3716	3673
3120	3101
2828	2811
595	573
3519	3505
144	83
1581	1542
1091	1058
3152	3142
932	867
3690	3671
3507	3453
2675	2649
2611	2596
1323	1315
3272	3222
1107	1099
828	825
3338	3325
985	941
3971	3963
245	231
1965	1910
3862	3834
3489	3467
3942	3919
2137	2082
1417	1353
798	782
2632	2608
2722	2658
50	15
590	563
1523	1482
2210	2147
3806	3785
2094	2047
3778	3776
1612	1551
1230	1177
2965	2899
3867	3853
3746	3723
3881	3878
3003	2950
489	484
70	53
916	871
2190	2130
251	222
3632	3607
3455	3445
836	770
2120	2119
1816	1809
2630	2616
3875	3872
1360	1338
1740	1690
2215	2175
3136	3134
312	274
275	218
1181	1132
3378	3363
2792	2778
683	650
104	52
287	244
486	443
429	367
3876	3851
2331	2318
2083	2040
3283	3257
3225	3224
1181	1145
3919	3893
430	416
947	929
2674	2633
3880	3856
3384	3343
2185	2119
959	914
2752	2688
1519	1494
3250	3187
3452	3423
2792	2774
2968	2938
2056	1993
3229	3224
718	669
2938	2909
222	168
854	794
169	127
1462	1451
3918	3875
