anchor	target
3371	3321
1278	1235
842	799
395	338
1769	1708
3457	3432
3113	3076
1820	1798
585	547
626	561
1670	1630
2916	2907
1415	1352
2190	2132
3580	3556
2682	2641
2390	2366
3926	3914
1589	1537
1415	1369
3319	3276
2909	2895
753	722
638	636
1932	1931
4140	4076
3969	3929
3656	3647
1640	1615
1488	1438
3088	3061
3493	3476
2894	2882
222	221
3012	2953
4150	4133
2675	2652
2869	2857
3110	3047
4104	4060
4252	4189
3586	3582
1780	1764
3727	3723
2282	2264
3799	3732
2839	2777
2162	2096
1281	1257
1508	1495
3082	3019
137	134
64	14
1316	1256
1578	1550
2413	2367
90	33
3437	3424
926	864
2210	2178
1980	1927
488	471
3864	3803
3719	3662
1815	1750
1582	1562
2057	2020
606	542
3206	3151
986	925
2839	2795
376	341
2073	2032
2790	2789
2361	2325
3012	2991
2359	2346
2197	2181
4279	4251
1996	1989
652	586
453	441
4290	4231
3849	3795
4149	4087
302	301
3860	3794
2822	2759
902	889
151	121
1173	1157
539	511
2906	2893
2213	2149
4114	4112
3222	3203
2824	2773
2771	2764
1201	1173
2874	2828
2417	2370
266	244
918	888
3550	3546
1714	1712
1004	972
2700	2651
88	56
1440	1438
2191	2184
2920	2860
468	453
3200	3148
2354	2335
2626	2623
3135	3069
2261	2204
3465	3423
3454	3450
3275	3255
77	35
601	592
914	907
2789	2740
220	173
152	87
1502	1443
2012	1958
2840	2830
2032	2005
538	531
1144	1092
4132	4116
1852	1827
1956	1946
2201	2147
1145	1111
2173	2132
3099	3032
4264	4226
3704	3701
599	548
4192	4157
412	398
1895	1890
3035	2994
2941	2934
4038	3994
2462	2404
3090	3046
1446	1380
3781	3727
3812	3754
3589	3527
2255	2224
2111	2091
3671	3609
3758	3732
1731	1699
1893	1875
837	774
2933	2869
1869	1802
92	52
1264	1236
2245	2239
893	885
24	15
755	704
2594	2547
1840	1803
2757	2708
2182	2162
3534	3517
3526	3524
1181	1175
1325	1262
2025	2020
3420	3413
782	771
757	754
72	6
4020	3991
3279	3274
3949	3923
3427	3390
1828	1815
2872	2816
3585	3578
535	522
4265	4199
2682	2635
2941	2905
820	761
187	129
1636	1635
1763	1725
4311	4292
1886	1835
656	589
3126	3070
3910	3900
1726	1711
1611	1593
169	162
4020	3963
2042	2020
2306	2264
2299	2287
4105	4056
793	732
1059	1026
535	518
3883	3859
1258	1254
1247	1184
3667	3658
2772	2735
1705	1687
499	481
2193	2172
664	626
3906	3845
1562	1514
2179	2176
4044	4026
2687	2625
234	208
807	763
3273	3252
3815	3772
1428	1389
4060	4010
3710	3676
3229	3205
1077	1073
3746	3721
336	325
1259	1206
2941	2900
494	472
4012	3961
136	84
880	840
2334	2288
214	201
900	856
544	508
4140	4115
1983	1979
1316	1304
1175	1173
2834	2771
1053	1052
531	529
1210	1155
3555	3543
2382	2316
1717	1667
3247	3203
2003	1985
3480	3439
3660	3628
979	912
2281	2271
4298	4260
4171	4122
3522	3502
989	923
698	689
2074	2029
3487	3434
3221	3175
2009	1983
1136	1117
1639	1584
3511	3452
837	809
4158	4136
3453	3406
3771	3747
551	502
1911	1886
4063	4059
3795	3729
2777	2756
786	778
685	625
1187	1158
2122	2104
296	275
2658	2596
398	379
1303	1249
437	427
113	54
3079	3074
184	150
2382	2376
1671	1644
1498	1487
1915	1878
529	490
192	175
460	425
2075	2030
1406	1339
4147	4123
3017	2979
892	869
70	53
1633	1590
2906	2892
2707	2699
3425	3423
2461	2397
3920	3876
492	485
3421	3376
1069	1030
3715	3669
925	884
4162	4150
1299	1270
2642	2577
4039	4018
3491	3426
4166	4151
3111	3046
234	204
2669	2655
3247	3242
1965	1908
3931	3886
1563	1501
3372	3361
327	307
3590	3569
189	154
1648	1628
2415	2384
332	320
404	394
2919	2860
1823	1820
3874	3871
2405	2361
3038	3034
995	993
2585	2566
2511	2463
591	561
728	721
2910	2906
2302	2292
3564	3514
3211	3185
43	11
3408	3352
2123	2116
44	12
3572	3521
3204	3192
3859	3796
1774	1754
345	286
3432	3414
2351	2306
1317	1263
2815	2758
1381	1341
3904	3891
3823	3757
665	634
758	722
2512	2474
471	469
2052	2034
349	295
2036	2018
1022	955
1128	1099
2440	2375
895	848
4278	4224
688	637
2860	2846
2779	2713
3705	3700
1116	1089
2938	2894
127	100
970	933
2370	2359
4015	4004
4228	4221
2934	2898
1263	1241
3429	3406
437	417
741	708
3155	3119
2925	2868
310	308
149	140
1254	1228
1844	1793
665	618
3445	3390
1883	1862
3360	3327
4042	3975
316	270
3891	3834
3363	3326
511	481
1656	1593
997	956
3740	3728
3014	3005
1390	1355
2577	2567
1060	1007
2498	2493
1117	1098
2937	2900
1409	1373
75	33
2568	2552
4068	4045
1395	1366
1685	1665
3384	3382
3101	3039
1982	1957
2460	2432
3922	3886
3379	3344
2419	2364
899	849
134	108
4070	4053
2553	2509
963	896
2968	2908
3153	3116
886	854
1989	1966
4205	4183
2273	2217
2587	2547
1893	1869
2175	2119
3704	3688
3106	3091
1200	1183
444	433
2792	2758
3073	3048
2926	2866
2285	2222
3353	3346
2636	2588
2205	2169
628	590
3111	3092
4197	4137
2297	2296
1270	1235
4116	4065
2447	2412
256	225
2983	2949
2427	2368
1475	1409
3405	3403
2088	2049
723	694
267	245
883	866
1594	1585
2685	2664
1887	1870
168	105
2953	2912
2531	2481
2545	2543
1896	1866
440	394
2380	2336
3099	3082
1838	1774
808	750
1982	1967
704	645
3234	3175
4141	4091
3027	3007
3760	3740
3161	3100
1045	1042
2942	2929
3822	3818
3638	3591
2685	2634
3295	3259
3965	3929
1817	1768
920	865
2188	2138
1978	1943
2300	2295
3755	3753
3450	3393
1415	1408
124	110
726	725
1297	1272
969	959
2890	2870
1439	1388
2685	2678
415	413
3422	3358
1394	1376
3786	3724
2253	2252
4202	4140
4063	4053
1273	1208
2474	2409
1347	1283
3710	3651
2782	2717
1913	1850
1474	1430
3761	3713
521	474
2066	2031
1366	1304
1797	1759
897	871
3268	3236
1401	1336
3187	3126
3599	3547
3545	3519
810	769
2275	2216
1577	1559
1059	1019
1095	1085
3693	3653
2581	2561
3502	3456
2121	2080
3175	3124
598	548
1015	983
1593	1574
2601	2549
2854	2811
1633	1616
2694	2647
3155	3131
552	547
2854	2821
3713	3648
2801	2763
1283	1278
4242	4176
1192	1168
3292	3230
3804	3766
2266	2217
396	372
3262	3241
413	357
4140	4088
4226	4194
3688	3650
1850	1844
510	453
3485	3444
1961	1910
1090	1067
102	69
2716	2690
4299	4283
3824	3800
1058	995
3458	3392
2205	2140
1335	1318
1716	1650
3345	3310
928	920
177	176
2715	2653
1481	1457
3960	3954
3186	3145
2198	2168
3448	3446
123	116
3462	3425
1838	1785
3352	3315
2411	2368
3129	3108
3621	3556
1607	1595
945	881
4101	4056
211	193
1069	1027
754	753
3630	3587
2686	2626
2951	2885
935	931
1705	1641
4245	4186
2594	2537
1622	1555
2848	2847
4254	4218
1540	1474
266	253
2115	2085
3392	3345
402	384
1105	1065
1826	1779
3565	3498
2427	2387
1019	981
3344	3293
2603	2599
1665	1599
3668	3651
992	926
1372	1344
757	726
4018	3960
1533	1492
2413	2370
3117	3076
217	179
1170	1161
3354	3296
501	441
1683	1678
3275	3210
1767	1753
3893	3891
292	275
1346	1297
4256	4236
2852	2850
2255	2229
1931	1905
2935	2873
3841	3833
3825	3777
541	507
1606	1591
1213	1202
3436	3388
3357	3327
2744	2732
1089	1084
2962	2946
2088	2055
2645	2625
3677	3618
870	809
755	731
3461	3401
1405	1369
3384	3350
3616	3573
2987	2974
2756	2703
773	719
3504	3498
4235	4200
2513	2497
3757	3716
425	415
2928	2915
3133	3105
1042	983
95	76
2805	2753
466	429
4053	4042
4219	4181
1699	1641
370	304
240	186
1720	1709
3890	3860
3011	2964
2216	2180
4280	4278
3419	3386
533	512
981	943
2129	2108
3327	3277
2604	2577
3599	3540
3530	3476
2715	2708
3917	3851
681	614
2989	2937
2410	2408
2186	2154
3770	3709
2547	2482
3393	3379
1268	1214
2925	2912
2581	2542
2824	2771
3544	3531
3237	3231
2123	2070
4098	4043
3608	3598
2378	2370
3694	3629
3685	3684
1742	1717
1805	1758
345	309
1753	1702
1850	1827
606	601
504	480
2042	1998
3932	3929
4323	4290
1829	1813
402	385
3455	3410
1516	1497
2757	2722
708	645
1060	1011
1094	1036
3414	3353
4114	4094
2290	2285
3371	3367
4313	4295
387	354
2396	2392
931	925
2589	2567
3826	3800
4016	4009
2188	2171
3936	3899
624	586
460	415
3604	3561
1875	1855
2099	2035
1544	1513
2439	2427
3487	3470
593	575
4277	4256
894	839
3632	3619
2245	2190
1857	1808
422	414
3912	3873
3173	3120
2828	2814
2653	2638
743	691
227	198
2642	2627
531	482
814	751
285	232
3955	3903
623	611
2547	2538
2590	2577
3686	3627
3347	3331
1549	1511
3331	3290
2147	2142
2570	2564
1248	1188
3464	3442
1953	1887
3975	3974
256	217
496	460
1257	1216
2290	2234
3075	3014
3952	3940
2637	2588
1318	1278
3727	3703
964	905
543	517
472	408
4052	4029
2915	2901
3152	3111
3901	3878
167	122
711	661
646	620
2999	2970
2297	2294
331	300
1063	1009
1286	1271
219	152
770	763
351	340
266	204
3922	3863
2201	2177
42	22
976	964
2286	2253
3910	3866
419	393
3691	3645
1651	1646
828	818
578	515
644	638
2676	2621
1006	947
3127	3079
2439	2400
2232	2186
1324	1263
1893	1883
2607	2573
1193	1162
3026	3010
3372	3343
651	639
4159	4153
2265	2242
1801	1742
2378	2367
2226	2166
1254	1221
1821	1770
2514	2478
1259	1224
1229	1175
1627	1615
4049	4036
1125	1114
1384	1344
2282	2240
906	896
2260	2221
3776	3763
3166	3110
877	870
1866	1810
3141	3140
4267	4240
527	490
3060	3010
3156	3097
268	219
137	103
2877	2848
718	697
2742	2681
3678	3656
893	865
3613	3600
3093	3051
3102	3082
3283	3267
483	417
2949	2899
2759	2754
494	474
3209	3182
242	239
1284	1273
3288	3221
3389	3352
976	948
2605	2550
209	159
3162	3095
3819	3809
2688	2667
3679	3674
1568	1512
1766	1741
312	279
1050	986
1529	1511
995	934
1488	1440
571	505
1252	1233
3131	3081
2179	2112
3243	3202
2969	2917
3072	3067
1398	1350
132	111
2733	2698
1110	1043
1761	1730
3730	3709
1007	960
1461	1441
2992	2931
2772	2743
689	679
2704	2642
451	400
4313	4282
4231	4182
3072	3047
4112	4068
2333	2288
2817	2789
909	866
2621	2575
2730	2685
3136	3093
2539	2521
1551	1544
1835	1816
3552	3503
1365	1321
2930	2870
1255	1201
4278	4221
3380	3322
1967	1903
1347	1297
4211	4178
2783	2721
33	13
2209	2171
1561	1494
3785	3719
1946	1901
1587	1573
4048	4028
3164	3142
180	134
4047	4014
1727	1699
3342	3287
4027	4022
1466	1417
3331	3264
3220	3162
1845	1781
2041	2000
2766	2728
3581	3543
3937	3934
1714	1688
1862	1856
252	203
392	386
1057	1034
1247	1193
750	699
4126	4106
2294	2233
1012	1000
163	146
1574	1560
4260	4245
487	454
2368	2323
3928	3919
3488	3455
1634	1593
1277	1227
