anchor	target
1390	1363
2061	2048
1019	989
1265	1205
949	897
3625	3563
3230	3209
1124	1119
81	50
2607	2562
3719	3662
3093	3059
1951	1917
4141	4078
3474	3419
2857	2810
3849	3808
970	905
712	662
1839	1813
285	235
1300	1270
702	646
3770	3733
1201	1142
2419	2384
1201	1136
4384	4320
796	775
1600	1561
3864	3827
4128	4079
3574	3516
3073	3060
3913	3854
2434	2401
1380	1374
1097	1076
2861	2832
2940	2921
757	737
2866	2806
4154	4153
1975	1921
3058	2995
3615	3611
159	101
1388	1358
2996	2982
688	636
1176	1171
741	709
1358	1322
2086	2083
3476	3411
1275	1248
3261	3219
4341	4312
900	890
218	180
2503	2482
1317	1266
4326	4306
3742	3720
1618	1593
2618	2610
2559	2506
3047	3004
2639	2609
4167	4135
4335	4308
1334	1309
2420	2365
1749	1722
3330	3314
2516	2507
3760	3754
3699	3676
3266	3244
274	210
4007	3974
1453	1443
3737	3672
1819	1766
353	339
3681	3658
660	628
2736	2689
2911	2898
4337	4283
2543	2506
514	462
2209	2206
1116	1080
4326	4266
2070	2032
1329	1289
4265	4254
2989	2929
56	37
4381	4375
2300	2283
3968	3963
2568	2515
4208	4178
2171	2115
3931	3921
2496	2495
2531	2499
3489	3480
103	76
3229	3202
1929	1921
2489	2454
1958	1908
1882	1817
4328	4297
3501	3483
1572	1546
235	179
615	551
1739	1717
2880	2869
3037	2998
4323	4262
731	730
3255	3229
1318	1260
4199	4151
971	924
3632	3593
2382	2364
972	941
505	482
2333	2280
280	273
2709	2673
2171	2153
1351	1327
2599	2560
3129	3069
3293	3287
4103	4080
2995	2994
989	940
1487	1447
1572	1539
2709	2707
3298	3291
4038	4004
1535	1524
1764	1758
2755	2694
3841	3783
3280	3221
1620	1573
4219	4200
156	114
4335	4290
4380	4363
1231	1166
394	378
50	9
436	425
909	883
1436	1388
1279	1231
1183	1168
3180	3159
132	75
78	27
4241	4210
3795	3789
194	135
4049	4038
2956	2951
2864	2816
3743	3731
845	780
2059	2005
179	155
174	166
4372	4318
3248	3244
3316	3308
3919	3908
3525	3493
1501	1463
1282	1231
979	933
3419	3407
1817	1792
2549	2488
1139	1114
261	198
1485	1482
3698	3669
2868	2814
2575	2519
3251	3186
2613	2576
2975	2915
1392	1354
4178	4117
2794	2742
61	23
1356	1295
428	370
3997	3978
1556	1502
88	78
3189	3171
62	37
3295	3278
3613	3561
599	542
2420	2380
2584	2549
442	400
1851	1801
1664	1634
809	774
2470	2456
1849	1832
3554	3509
3656	3596
1401	1348
1530	1484
1528	1497
1869	1845
580	526
416	409
3788	3782
1736	1712
3159	3093
27	23
785	761
1155	1146
4334	4281
1789	1773
435	425
4018	3995
286	261
3764	3726
2507	2491
4319	4292
193	189
1852	1842
4315	4282
1628	1616
1892	1845
467	413
670	605
3969	3929
1529	1492
3707	3691
1942	1900
125	106
4235	4191
354	301
3275	3254
3739	3677
3927	3860
4296	4243
1000	974
3098	3070
2375	2359
1076	1013
1726	1665
143	101
1902	1883
4206	4184
3507	3454
4294	4234
2511	2473
814	780
3419	3366
3147	3136
162	132
3070	3008
2083	2039
4163	4113
2804	2783
2395	2350
2963	2930
190	160
4360	4308
2289	2225
3982	3954
392	327
3866	3831
1247	1208
1652	1644
3959	3942
3288	3228
2204	2141
3980	3971
3036	2994
4256	4249
826	813
2778	2742
2600	2536
4242	4187
2952	2922
2649	2612
4056	4022
3040	3024
2983	2928
707	690
2873	2830
1991	1945
1985	1971
1482	1467
3398	3361
3432	3399
1284	1267
2574	2563
3600	3588
1793	1781
2889	2822
1454	1418
234	213
517	456
1977	1937
3494	3451
410	362
516	489
2278	2255
3878	3832
1443	1413
625	571
4079	4065
2913	2863
384	341
3579	3576
420	412
3926	3909
2665	2654
2393	2384
1959	1930
3872	3862
1243	1186
1415	1352
1559	1493
3665	3641
3118	3065
57	18
180	139
1844	1837
928	904
2512	2477
1777	1719
3683	3672
2670	2640
423	391
2844	2806
509	492
3644	3594
2673	2608
3242	3217
498	460
2655	2652
1834	1786
2672	2613
965	917
299	260
550	541
4093	4081
3351	3310
2046	1994
1415	1389
3878	3859
2728	2715
3315	3292
2112	2098
1691	1635
122	96
2845	2833
1109	1079
3741	3710
2985	2932
1075	1026
1686	1668
2814	2781
4200	4145
2194	2156
3605	3581
1266	1210
3044	3010
4390	4343
2868	2856
3794	3783
1476	1433
551	490
3792	3734
280	260
967	906
3524	3521
3564	3499
3982	3946
2598	2564
1798	1779
2212	2178
367	352
3312	3301
3187	3152
2804	2776
3967	3931
2888	2856
4228	4184
3133	3090
1745	1718
1442	1404
1918	1884
483	443
2439	2437
657	619
111	96
3811	3795
468	439
1547	1487
1150	1091
934	886
2501	2491
2613	2598
2517	2474
1835	1777
367	309
1840	1797
2581	2524
3555	3545
4055	4002
3262	3227
1264	1245
4015	3957
4301	4261
282	238
2177	2159
1712	1647
2233	2215
1663	1616
4033	3995
2084	2079
823	810
2979	2972
1496	1457
2904	2858
761	697
545	487
296	290
3991	3986
2640	2614
906	879
78	45
4383	4353
1025	1016
2448	2398
3007	2995
1688	1669
2707	2698
88	49
1505	1465
1858	1805
2646	2622
1393	1334
1425	1389
1781	1716
3957	3896
1357	1303
1254	1227
2925	2873
892	837
2001	1959
2203	2188
3642	3587
2891	2842
2271	2268
3358	3326
2230	2208
1787	1734
3051	3012
4296	4292
1666	1642
4027	4016
2737	2721
1042	1005
3291	3255
2464	2442
2499	2456
4099	4086
331	264
3943	3923
2974	2968
1925	1911
2681	2670
982	966
3712	3687
278	244
130	98
259	226
478	429
814	751
2965	2934
1538	1532
335	288
3414	3355
3606	3580
2984	2980
810	808
1245	1239
2547	2529
3166	3133
4317	4260
1042	1007
4223	4161
3392	3333
1262	1241
433	369
1179	1129
1638	1605
119	118
1837	1785
1920	1880
3564	3549
3967	3925
4371	4333
3626	3571
3825	3797
2882	2837
4013	3963
2131	2100
2790	2757
550	525
1689	1641
1323	1319
674	640
3547	3513
3710	3661
3864	3817
3791	3764
3115	3056
4019	4009
3604	3537
3164	3155
846	811
4003	3969
433	410
1165	1133
1207	1173
3477	3452
2781	2741
2759	2692
2255	2195
4279	4266
762	748
4006	3995
1022	995
854	792
4324	4272
1838	1837
136	82
3784	3777
1609	1560
881	816
799	734
2174	2133
3295	3261
2719	2695
4166	4150
1194	1138
4046	3998
1536	1521
3083	3040
2600	2581
1561	1522
2452	2443
2717	2660
963	936
3903	3876
2495	2470
736	728
2639	2634
1201	1172
166	156
3034	3026
133	72
1036	1030
4114	4071
3769	3742
3567	3511
3901	3885
795	771
1507	1444
150	149
4285	4265
3889	3865
4294	4258
3622	3560
394	370
3763	3719
2478	2447
4002	3977
4235	4205
1204	1157
2202	2188
4075	4014
2313	2273
3838	3774
1905	1866
694	631
1340	1274
3247	3218
2471	2470
3935	3902
210	191
1154	1149
4313	4286
154	105
1289	1269
511	478
2816	2764
863	854
156	138
2406	2376
829	806
980	917
1739	1731
3400	3339
1409	1349
2578	2571
2063	2026
4257	4191
2392	2325
1657	1656
840	803
3270	3234
1088	1057
637	592
299	287
1929	1895
788	729
3854	3822
3614	3592
3811	3763
1683	1636
2668	2626
2804	2773
2117	2114
1211	1178
2945	2896
4314	4285
3211	3200
448	433
19	16
2301	2297
4285	4252
1003	981
717	684
4013	4005
2548	2501
2454	2426
867	835
1271	1236
946	890
1733	1667
1270	1224
4367	4360
2802	2774
2981	2929
1556	1544
3694	3628
2874	2860
3824	3763
3170	3166
2922	2879
2524	2460
1818	1783
2305	2252
4008	3985
1125	1060
4198	4193
159	145
1144	1137
1406	1353
1416	1390
195	151
1990	1931
826	767
2691	2676
3603	3541
3338	3274
3103	3100
2251	2245
560	542
2633	2578
1031	1003
996	962
1934	1901
3259	3193
2690	2670
1975	1946
2799	2761
3938	3923
3451	3436
3869	3825
879	824
2629	2616
4059	4021
1452	1389
4362	4354
1447	1396
2388	2323
4238	4232
862	795
898	840
4155	4146
2579	2536
2739	2715
4078	4043
3440	3378
2157	2095
1975	1929
191	133
358	322
1374	1343
1367	1340
4071	4022
1422	1391
1460	1414
2857	2799
4347	4325
2119	2081
2020	1961
930	905
451	419
860	832
673	660
2938	2911
451	436
2858	2801
187	128
2580	2560
2541	2526
1585	1531
2487	2455
4072	4011
1703	1671
4240	4179
1350	1291
2662	2600
3868	3853
1193	1161
3615	3577
3482	3452
4210	4180
1801	1795
1905	1850
2597	2564
1092	1041
1338	1282
196	150
2030	1971
3396	3339
1920	1866
2119	2101
61	18
4330	4294
2026	1970
748	688
834	822
1025	1017
3280	3265
2086	2059
4376	4366
211	188
1753	1717
2583	2546
518	470
3365	3334
1369	1357
4253	4243
4348	4301
3142	3130
4155	4126
342	276
1609	1554
533	528
4354	4289
1224	1175
1519	1488
1284	1248
56	31
2786	2769
3910	3875
3012	2981
3686	3650
1331	1313
2000	1989
3965	3931
2287	2248
1101	1050
555	501
1555	1549
187	177
544	494
542	482
343	315
3697	3647
1722	1697
3849	3848
2908	2853
144	86
1270	1225
997	973
3413	3349
3772	3769
2149	2091
4117	4081
2344	2302
851	800
1062	1000
174	130
1949	1911
668	667
3980	3952
861	830
3993	3955
3456	3443
2894	2874
2867	2837
4056	4000
142	92
1587	1585
449	396
3877	3819
1238	1183
3363	3349
1105	1103
1875	1809
1503	1457
3159	3112
1267	1228
3428	3398
3197	3152
4096	4041
1130	1119
3552	3540
3427	3420
4306	4262
2049	2009
3027	2964
1657	1616
3773	3752
3966	3921
1272	1213
1998	1943
2074	2073
340	300
2706	2679
2850	2811
2335	2291
1708	1670
2635	2633
3902	3862
2213	2212
3099	3043
729	704
3701	3700
2904	2886
764	751
2484	2423
2174	2134
1311	1309
2920	2868
4007	3941
2168	2118
3497	3442
363	330
3813	3801
3916	3856
2953	2901
2183	2164
363	338
1703	1683
2355	2335
2989	2930
2479	2450
819	804
873	810
4014	3994
2243	2191
1939	1888
350	346
4056	4005
1474	1467
3643	3578
945	886
1233	1206
1518	1472
1231	1224
150	108
3364	3329
4127	4107
4283	4218
3050	2989
1309	1250
2270	2213
1083	1027
706	700
4119	4108
3062	3004
2764	2734
3185	3124
2900	2874
2585	2521
2307	2261
3567	3566
3540	3533
2826	2765
1021	960
1177	1137
3747	3728
2695	2638
1837	1821
3133	3081
3555	3550
3630	3627
1423	1417
4079	4030
4155	4136
3500	3461
4280	4254
179	132
3353	3307
2475	2419
1165	1148
3017	2982
186	168
1876	1812
3220	3179
1329	1297
949	921
3315	3313
1019	973
2489	2444
4239	4202
1010	955
1845	1807
3625	3612
1184	1135
3780	3744
3803	3779
1041	991
3250	3187
3791	3775
3639	3618
1664	1597
3644	3624
1838	1813
3719	3657
787	783
3119	3085
648	625
162	129
1195	1166
893	833
3463	3415
4061	4053
3629	3614
2695	2640
2206	2200
727	716
2875	2847
972	955
4357	4348
4267	4205
2641	2609
2688	2659
493	479
897	843
2997	2987
1171	1147
1409	1346
1708	1685
1245	1224
951	942
687	675
666	611
2486	2422
1059	1000
2848	2839
1140	1088
4345	4335
4158	4147
3844	3784
1370	1360
1585	1543
169	142
2039	1976
2752	2723
